^C:\USERS\MIKE .V LOON\DOCUMENTS\VISUAL STUDIO 2017\PROJECTS\ICESCAPE\ICESCAPE\RELEASE\MAIN.OBJ
C:\WINDOWS\GLOBALIZATION\SORTING\SORTDEFAULT.NLS
C:\USERS\MIKE .V LOON\DOCUMENTS\VISUAL STUDIO 2017\PROJECTS\ICESCAPE\DEPENDENCIES\SFML-2.5.1\LIB\SFML-GRAPHICS.LIB
C:\USERS\MIKE .V LOON\DOCUMENTS\VISUAL STUDIO 2017\PROJECTS\ICESCAPE\DEPENDENCIES\SFML-2.5.1\LIB\SFML-WINDOW.LIB
C:\USERS\MIKE .V LOON\DOCUMENTS\VISUAL STUDIO 2017\PROJECTS\ICESCAPE\DEPENDENCIES\SFML-2.5.1\LIB\SFML-SYSTEM.LIB
C:\USERS\MIKE .V LOON\DOCUMENTS\VISUAL STUDIO 2017\PROJECTS\ICESCAPE\DEPENDENCIES\SFML-2.5.1\LIB\SFML-AUDIO.LIB
C:\USERS\MIKE .V LOON\DOCUMENTS\VISUAL STUDIO 2017\PROJECTS\ICESCAPE\DEPENDENCIES\SFML-2.5.1\LIB\SFML-MAIN.LIB
C:\USERS\MIKE .V LOON\DOCUMENTS\VISUAL STUDIO 2017\PROJECTS\ICESCAPE\DEPENDENCIES\SFML-2.5.1\LIB\SFML-NETWORK.LIB
C:\PROGRAM FILES (X86)\WINDOWS KITS\10\LIB\10.0.16299.0\UM\X86\KERNEL32.LIB
C:\PROGRAM FILES (X86)\WINDOWS KITS\10\LIB\10.0.16299.0\UM\X86\USER32.LIB
C:\PROGRAM FILES (X86)\WINDOWS KITS\10\LIB\10.0.16299.0\UM\X86\GDI32.LIB
C:\PROGRAM FILES (X86)\WINDOWS KITS\10\LIB\10.0.16299.0\UM\X86\WINSPOOL.LIB
C:\PROGRAM FILES (X86)\WINDOWS KITS\10\LIB\10.0.16299.0\UM\X86\COMDLG32.LIB
C:\PROGRAM FILES (X86)\WINDOWS KITS\10\LIB\10.0.16299.0\UM\X86\ADVAPI32.LIB
C:\PROGRAM FILES (X86)\WINDOWS KITS\10\LIB\10.0.16299.0\UM\X86\SHELL32.LIB
C:\PROGRAM FILES (X86)\WINDOWS KITS\10\LIB\10.0.16299.0\UM\X86\OLE32.LIB
C:\PROGRAM FILES (X86)\WINDOWS KITS\10\LIB\10.0.16299.0\UM\X86\OLEAUT32.LIB
C:\PROGRAM FILES (X86)\WINDOWS KITS\10\LIB\10.0.16299.0\UM\X86\UUID.LIB
C:\PROGRAM FILES (X86)\WINDOWS KITS\10\LIB\10.0.16299.0\UM\X86\ODBC32.LIB
C:\PROGRAM FILES (X86)\WINDOWS KITS\10\LIB\10.0.16299.0\UM\X86\ODBCCP32.LIB
C:\USERS\MIKE .V LOON\DOCUMENTS\VISUAL STUDIO 2017\PROJECTS\ICESCAPE\ICESCAPE\RELEASE\MAIN.OBJ
D:\PROGRAM FILES (X86)\MICROSOFT VISUAL STUDIO\2017\COMMUNITY\VC\TOOLS\MSVC\14.12.25827\BIN\HOSTX86\X86\C2.DLL
D:\PROGRAM FILES (X86)\MICROSOFT VISUAL STUDIO\2017\COMMUNITY\VC\TOOLS\MSVC\14.12.25827\LIB\X86\MSVCPRT.LIB
D:\PROGRAM FILES (X86)\MICROSOFT VISUAL STUDIO\2017\COMMUNITY\VC\TOOLS\MSVC\14.12.25827\LIB\X86\MSVCRT.LIB
D:\PROGRAM FILES (X86)\MICROSOFT VISUAL STUDIO\2017\COMMUNITY\VC\TOOLS\MSVC\14.12.25827\LIB\X86\OLDNAMES.LIB
D:\PROGRAM FILES (X86)\MICROSOFT VISUAL STUDIO\2017\COMMUNITY\VC\TOOLS\MSVC\14.12.25827\LIB\X86\VCRUNTIME.LIB
C:\PROGRAM FILES (X86)\WINDOWS KITS\10\LIB\10.0.16299.0\UCRT\X86\UCRT.LIB
D:\PROGRAM FILES (X86)\MICROSOFT VISUAL STUDIO\2017\COMMUNITY\VC\TOOLS\MSVC\14.12.25827\BIN\HOSTX86\X86\1033\LINKUI.DLL
C:\PROGRAM FILES (X86)\WINDOWS KITS\10\BIN\10.0.16299.0\X86\RC.EXE
D:\PROGRAM FILES (X86)\MICROSOFT VISUAL STUDIO\2017\COMMUNITY\VC\TOOLS\MSVC\14.12.25827\BIN\HOSTX86\X86\CVTRES.EXE
C:\WINDOWS\SYSTEM32\TZRES.DLL
^D:\GAME\ICESCAPE\ICESCAPE\RELEASE\BEHAVIOUR.OBJ|D:\GAME\ICESCAPE\ICESCAPE\RELEASE\COLLIDER.OBJ|D:\GAME\ICESCAPE\ICESCAPE\RELEASE\CONTACTLISTENER.OBJ|D:\GAME\ICESCAPE\ICESCAPE\RELEASE\ICE.OBJ|D:\GAME\ICESCAPE\ICESCAPE\RELEASE\MAIN.OBJ|D:\GAME\ICESCAPE\ICESCAPE\RELEASE\OBJECT.OBJ|D:\GAME\ICESCAPE\ICESCAPE\RELEASE\PARTICLE.OBJ|D:\GAME\ICESCAPE\ICESCAPE\RELEASE\PHYSICS.OBJ|D:\GAME\ICESCAPE\ICESCAPE\RELEASE\PLAYER.OBJ|D:\GAME\ICESCAPE\ICESCAPE\RELEASE\SCENE.OBJ|D:\GAME\ICESCAPE\ICESCAPE\RELEASE\SCREEN.OBJ|D:\GAME\ICESCAPE\ICESCAPE\RELEASE\STRUCTS.OBJ|D:\GAME\ICESCAPE\ICESCAPE\RELEASE\VISUAL.OBJ
C:\WINDOWS\GLOBALIZATION\SORTING\SORTDEFAULT.NLS
D:\GAME\ICESCAPE\DEPENDENCIES\SFML-2.5.1\LIB\SFML-GRAPHICS.LIB
D:\GAME\ICESCAPE\DEPENDENCIES\SFML-2.5.1\LIB\SFML-WINDOW.LIB
D:\GAME\ICESCAPE\DEPENDENCIES\SFML-2.5.1\LIB\SFML-SYSTEM.LIB
D:\GAME\ICESCAPE\DEPENDENCIES\SFML-2.5.1\LIB\SFML-AUDIO.LIB
D:\GAME\ICESCAPE\DEPENDENCIES\SFML-2.5.1\LIB\SFML-MAIN.LIB
D:\GAME\ICESCAPE\DEPENDENCIES\SFML-2.5.1\LIB\SFML-NETWORK.LIB
D:\GAME\ICESCAPE\DEPENDENCIES\BOX2D-MASTER\LIB\BOX2D.LIB
C:\PROGRAM FILES (X86)\WINDOWS KITS\10\LIB\10.0.16299.0\UM\X86\KERNEL32.LIB
C:\PROGRAM FILES (X86)\WINDOWS KITS\10\LIB\10.0.16299.0\UM\X86\USER32.LIB
C:\PROGRAM FILES (X86)\WINDOWS KITS\10\LIB\10.0.16299.0\UM\X86\GDI32.LIB
C:\PROGRAM FILES (X86)\WINDOWS KITS\10\LIB\10.0.16299.0\UM\X86\WINSPOOL.LIB
C:\PROGRAM FILES (X86)\WINDOWS KITS\10\LIB\10.0.16299.0\UM\X86\COMDLG32.LIB
C:\PROGRAM FILES (X86)\WINDOWS KITS\10\LIB\10.0.16299.0\UM\X86\ADVAPI32.LIB
C:\PROGRAM FILES (X86)\WINDOWS KITS\10\LIB\10.0.16299.0\UM\X86\SHELL32.LIB
C:\PROGRAM FILES (X86)\WINDOWS KITS\10\LIB\10.0.16299.0\UM\X86\OLE32.LIB
C:\PROGRAM FILES (X86)\WINDOWS KITS\10\LIB\10.0.16299.0\UM\X86\OLEAUT32.LIB
C:\PROGRAM FILES (X86)\WINDOWS KITS\10\LIB\10.0.16299.0\UM\X86\UUID.LIB
C:\PROGRAM FILES (X86)\WINDOWS KITS\10\LIB\10.0.16299.0\UM\X86\ODBC32.LIB
C:\PROGRAM FILES (X86)\WINDOWS KITS\10\LIB\10.0.16299.0\UM\X86\ODBCCP32.LIB
D:\GAME\ICESCAPE\ICESCAPE\RELEASE\BEHAVIOUR.OBJ
D:\GAME\ICESCAPE\ICESCAPE\RELEASE\COLLIDER.OBJ
D:\GAME\ICESCAPE\ICESCAPE\RELEASE\ICE.OBJ
D:\GAME\ICESCAPE\ICESCAPE\RELEASE\OBJECT.OBJ
D:\GAME\ICESCAPE\ICESCAPE\RELEASE\PARTICLE.OBJ
D:\GAME\ICESCAPE\ICESCAPE\RELEASE\SCENE.OBJ
D:\GAME\ICESCAPE\ICESCAPE\RELEASE\SCREEN.OBJ
D:\GAME\ICESCAPE\ICESCAPE\RELEASE\CONTACTLISTENER.OBJ
D:\GAME\ICESCAPE\ICESCAPE\RELEASE\MAIN.OBJ
D:\GAME\ICESCAPE\ICESCAPE\RELEASE\PHYSICS.OBJ
D:\GAME\ICESCAPE\ICESCAPE\RELEASE\PLAYER.OBJ
D:\GAME\ICESCAPE\ICESCAPE\RELEASE\STRUCTS.OBJ
D:\GAME\ICESCAPE\ICESCAPE\RELEASE\VISUAL.OBJ
D:\PROGRAM FILES (X86)\MICROSOFT VISUAL STUDIO\2017\COMMUNITY\VC\TOOLS\MSVC\14.12.25827\BIN\HOSTX86\X86\C2.DLL
D:\PROGRAM FILES (X86)\MICROSOFT VISUAL STUDIO\2017\COMMUNITY\VC\TOOLS\MSVC\14.12.25827\LIB\X86\MSVCPRT.LIB
D:\PROGRAM FILES (X86)\MICROSOFT VISUAL STUDIO\2017\COMMUNITY\VC\TOOLS\MSVC\14.12.25827\LIB\X86\MSVCRT.LIB
D:\PROGRAM FILES (X86)\MICROSOFT VISUAL STUDIO\2017\COMMUNITY\VC\TOOLS\MSVC\14.12.25827\LIB\X86\OLDNAMES.LIB
D:\PROGRAM FILES (X86)\MICROSOFT VISUAL STUDIO\2017\COMMUNITY\VC\TOOLS\MSVC\14.12.25827\LIB\X86\VCRUNTIME.LIB
C:\PROGRAM FILES (X86)\WINDOWS KITS\10\LIB\10.0.16299.0\UCRT\X86\UCRT.LIB
D:\PROGRAM FILES (X86)\MICROSOFT VISUAL STUDIO\2017\COMMUNITY\VC\TOOLS\MSVC\14.12.25827\BIN\HOSTX86\X86\1033\LINKUI.DLL
C:\PROGRAM FILES (X86)\WINDOWS KITS\10\BIN\10.0.16299.0\X86\RC.EXE
D:\PROGRAM FILES (X86)\MICROSOFT VISUAL STUDIO\2017\COMMUNITY\VC\TOOLS\MSVC\14.12.25827\BIN\HOSTX86\X86\CVTRES.EXE
D:\PROGRAM FILES (X86)\MICROSOFT VISUAL STUDIO\2017\COMMUNITY\VC\TOOLS\MSVC\14.12.25827\BIN\HOSTX86\X86\MSPDBSRV.EXE
C:\WINDOWS\SYSTEM32\TZRES.DLL
